main.c:83:5:main	8	static
main.c:136:6:SystemClock_Config	232	static
main.c:213:13:MX_DFSDM1_Init	8	static
main.c:251:13:MX_I2C2_Init	8	static
main.c:297:13:MX_QUADSPI_Init	8	static
main.c:330:13:MX_SPI3_Init	8	static
main.c:370:13:MX_USART1_UART_Init	8	static
main.c:405:13:MX_USART3_UART_Init	8	static
main.c:440:13:MX_USB_OTG_FS_PCD_Init	8	static
main.c:475:13:MX_GPIO_Init	48	static
main.c:672:6:Error_Handler	4	static,ignoring_inline_asm
